bcx5320,all5935,iqb9540,tbcc3303,iln5400,rta7300,bcc8132,iqt9535,bca5121,sofirvlv1y,iqf9540,iln8320,bcc7700,tbcc1203,all8110,iln8222,tbcc3351,t11_tbca2527,tbcc2303,all7320,iln7110,bca7300,sofiinq30,ilj8120,bcc5422,bcn8120,iln8120
1,2,3,4,5,6,7,8,9,10,11,12,13,14,15,16,17,18,19,20,21,22,23,24,25,26,27
27,1,2,3,4,5,6,7,8,9,10,11,12,13,14,15,16,17,18,19,20,21,22,23,24,25,26
26,27,1,2,3,4,5,6,7,8,9,10,11,12,13,14,15,16,17,18,19,20,21,22,23,24,25
25,26,27,1,2,3,4,5,6,7,8,9,10,11,12,13,14,15,16,17,18,19,20,21,22,23,24
24,25,26,27,1,2,3,4,5,6,7,8,9,10,11,12,13,14,15,16,17,18,19,20,21,22,23
23,24,25,26,27,1,2,3,4,5,6,7,8,9,10,11,12,13,14,15,16,17,18,19,20,21,22
